<?xml version="1.0" encoding="utf-8"?>
<!-- Generator: Adobe Illustrator 19.2.1, SVG Export Plug-In . SVG Version: 6.00 Build 0)  -->
<svg version="1.1" id="Layer_1" xmlns="http://www.w3.org/2000/svg" xmlns:xlink="http://www.w3.org/1999/xlink" x="0px" y="0px"
	 viewBox="0 0 250 95" style="enable-background:new 0 0 250 95;" xml:space="preserve">
<style type="text/css">
	.st0{fill:#27AAE1;}
	.st1{fill:#1C75BC;}
	.st2{fill:#FFFFFF;}
	.st3{fill:#0D4669;}
	.st4{opacity:0.7;}
	.st5{fill:#19ABE2;}
	.st6{fill:#101010;}
</style>
<g>
	<g>
		<rect x="71.5" y="13.1" class="st0" width="20" height="43.6"/>
		<rect x="108.5" y="13.1" class="st0" width="20" height="43.6"/>
		<path class="st0" d="M16.3,53.5"/>
		<g>
			<path class="st1" d="M108.5,56.9c-0.3,4.3-3.7,7.8-8,8c-4.7,0.3-8.8-3.5-8.9-8.1H71.7c1.8,13.9,13.9,25.2,28.3,25.2
				c14.6,0,26.6-11,28.3-25.2h-19.7C108.5,56.8,108.5,56.8,108.5,56.9z"/>
		</g>
		<rect x="11.1" y="13.1" class="st0" width="20" height="43.6"/>
		<rect x="48" y="13.1" class="st0" width="20" height="43.6"/>
		<g>
			<path class="st1" d="M48,56.9c-0.3,4.3-8,8-8,8s-8.8-3.5-8.9-8.1H11.2c1.8,13.9,28.3,25,28.3,25s26.6-11,28.4-25.2H48
				C48,56.8,48,56.8,48,56.9z"/>
		</g>
		<g>
			<path class="st2" d="M46,56.8c0-0.3,0.1-0.5,0.3-0.8c0.5-0.7,1.2-1.1,2-1.4c0.1,0,0.3,0,0.3-0.3c0,0,0.1,0,0.1-0.1
				c0.5-0.3,0.9-0.3,1.5-0.3c0.3,0,0.4,0,0.7-0.1c-0.1-0.1-0.1-0.4-0.3-0.5c-0.1-0.4-0.3-0.8-0.3-1.4c0-0.4,0.1-0.8,0.5-1.1
				c0.1-0.1,0.3-0.1,0.4-0.3l0.1-0.1c0-1.1-0.1-2.3-0.1-3.4c0,0,0,0,0-0.1c-0.3-0.7-0.4-1.5-0.5-2.3c-0.1-0.7-0.1-1.4-0.3-2v-0.1
				v-0.1c0.1-0.3,0-0.5-0.1-0.7c-0.3-0.3-0.3-0.7-0.4-0.9s0-0.5-0.1-0.7c0,0,0.1-0.3,0.1-0.4c0.1-0.1,0.4-0.1,0.7-0.3
				c0.1,0,0.1-0.1,0.1-0.3c0-0.7-0.1-1.5-0.1-2.2c0-0.1,0-0.3-0.1-0.3s-0.3-0.1-0.3-0.1c-0.1-0.1-0.3-0.3-0.1-0.5v-0.1
				c-0.1-0.3-0.3-0.5,0-0.8c-0.1-0.1-0.4-0.1-0.5-0.1c-0.5-0.3-0.8-0.7-0.8-1.2c0-0.4,0-0.8,0-1.2c0-0.5,0-0.9-0.4-1.4
				c0.1,0,0.4,0,0.7,0.3c0.1,0.1,0.3,0.4,0.3,0.5c0.1,0.4,0.1,0.8,0.1,1.2c0,0.3,0.1,0.4,0.3,0.7c0.1,0.1,0.3,0.3,0.5,0.3
				c0.1,0,0.1,0,0.1-0.1c0-0.1,0-0.3,0-0.4c-0.3-1.1,0.1-2.2,0.3-3.2l0,0l0.1,0.1c0.4,0.9,0.7,1.8,0.7,2.8c0,0.1,0,0.4,0,0.5
				c0,0.1,0,0.3,0.1,0.3s0.3,0,0.3,0c0.1-0.1,0.3-0.4,0.3-0.5c0-0.3,0-0.4,0-0.7c-0.1-0.5,0-1.1,0.3-1.6c0.1-0.1,0.3-0.3,0.4-0.3
				l0,0v0.1c-0.1,0.4-0.1,0.8,0,1.4c0.1,0.3,0.1,0.5,0.1,0.8c0.1,0.5-0.1,1.4-0.8,1.6c-0.1,0-0.1,0.1-0.3,0.1c0,0.1,0,0.1,0.1,0.3
				c0.1,0.1,0,0.3-0.1,0.4c-0.1,0.1-0.1,0.1,0,0.3c0.1,0.4,0,0.7-0.4,0.8l-0.1,0.1c0,0.7,0,1.2,0.1,1.9c0,0,0,0,0.1,0.1
				c0-0.1,0-0.1,0.1-0.3c0-0.1,0.1-0.3,0.1-0.4c0.1-0.1,0.3-0.3,0.4,0c0.1,0.1,0.1,0.3,0.1,0.5c0,0.7,0,1.4,0,2
				c0,0.4,0.1,0.5,0.3,0.8c0-0.1,0-0.4,0.3-0.4s0.3,0.3,0.4,0.4c0.1-0.3,0.1-0.5,0.1-0.8c0.1-0.8,0.5-1.4,1.4-1.6
				c0.3-0.1,0.5-0.1,0.8-0.3c-0.1-0.1-0.1-0.3-0.3-0.3c-0.1-0.3-0.4-0.4-0.5-0.7c-0.4-0.7-0.1-1.4,0.7-1.5c0.3-0.1,0.7-0.1,0.9,0
				c0.1,0,0.3,0.1,0.3,0.3c0.1,0.3,0.3,0.7,0.1,0.9c0,0.3-0.1,0.5-0.1,0.8c0.1-0.1,0.3-0.4,0.4-0.5c0-0.7-0.1-1.4-0.4-2
				c-0.1-0.3-0.1-0.7,0-0.9c0.1-0.4,0.1-0.9,0.3-1.4c0-0.3,0.1-0.7,0.3-0.9v-0.1c0-0.4,0.1-0.9,0.3-1.4v-0.1
				c-0.3-0.1-0.5-0.3-0.7-0.5c-0.1,0-0.1-0.1-0.3-0.1c-0.3-0.3-0.3-0.4,0-0.5c0.3-0.3,0.4-0.3,0.7,0c0,0,0,0,0.1,0
				c0-0.1,0-0.1-0.1-0.1c-0.1-0.1-0.1-0.1,0-0.3l0,0c0-0.3,0.3-0.3,0.4-0.4c0.1-0.1,0.1-0.3,0-0.4c-0.1-0.1-0.1-0.1,0-0.3v-0.1
				c0-0.4,0.3-0.5,0.5-0.8c0.1-0.1,0.1-0.1,0.1-0.3c0-0.1,0.1-0.1,0.1-0.3c0.1,0.3,0.1,0.4,0.3,0.5c0.1,0.1,0.3,0.3,0.4,0.3
				c0.3,0.3,0.3,0.3,0.1,0.5c0,0.1,0,0.3,0.1,0.3c0.3,0.1,0.4,0.3,0.5,0.5c0,0,0,0,0.1,0.1c0.1-0.4,0.4-0.7,0.9-0.7
				c-0.1,0.1-0.1,0.1-0.1,0.1c-0.3,0.1-0.4,0.7-0.3,0.9s0.4,0.5,0.7,0.5c0.4,0,0.7,0,0.9-0.3h0.1l0,0c0,0.1,0,0.1,0,0.3
				c-0.3,0.4-0.7,0.5-1.1,0.5c-0.1,0-0.1,0-0.3,0c0.1,0.3,0.1,0.5,0.3,0.8c0.4,0.7,0.5,1.5,0.7,2.3c0,0.1,0,0.3,0.1,0.3
				c0.3,0.4,0.1,0.9,0.1,1.4c-0.1,0.7-0.1,1.4,0.1,2c0,0.1,0.1,0.3,0.3,0.4c0.3,0.3,0.5,0.4,0.8,0.7h0.1c0.3,0,0.5,0.1,0.8,0.3
				c0.4,0.1,0.7,0.4,0.9,0.7v0.1c0.1,0.5,0.4,1.1,0.3,1.6c0,0.3,0,0.4,0,0.7c0,0.1,0.1,0.3,0,0.3c0,0.1,0.1,0.3,0,0.5
				c-0.1,0.1,0,0.3,0.1,0.4c0.1,0.1,0.1,0.1,0.1,0.3v0.1c0,0.1,0,0.3,0,0.3c0,0.1,0,0.3,0,0.4c0,0.3,0,0.4,0.1,0.8
				c0.1-0.1,0.1-0.1,0.1-0.3c0.3-0.5,0.4-1.1,0.7-1.8c0.1-0.4,0.1-0.7,0.3-1.1c0-0.1,0-0.4-0.1-0.5v-0.1c0.1-0.3,0.4-0.5,0.5-0.8
				v-0.1c-0.4-0.4-0.3-0.9,0-1.4c0.1-0.1,0.3-0.3,0.5-0.3c0.1,0,0.1,0,0.3-0.1c0.4-0.4,1.2-0.3,1.5,0.3c0.1,0.1,0.1,0.3,0.4,0.3h0.1
				c0.1-0.1,0.1-0.3,0.4-0.3c0.1,0,0.1,0,0.1,0.1V39c-0.1,0.7-0.4,1.4-1.1,1.8c-0.3,0.1-0.4,0.3-0.7,0.3L69,41.2
				c0.1,0.3,0.1,0.3,0,0.5c0,0.1-0.1,0.1-0.1,0.3c-0.1,1.1-0.1,2-0.3,3.1c0,0.4-0.3,0.9-0.4,1.4c0,0,0,0.1,0,0.3
				c0.1,0.3,0.3,0.5,0.4,0.7c0,0.1,0.1,0.3,0.1,0.3c0,0.1,0,0.3-0.1,0.3s-0.3,0-0.3,0c-0.1-0.1-0.3-0.3-0.4-0.5c0,0-0.1-0.1-0.1-0.3
				c0,0.1-0.1,0.1-0.1,0.3c0,0.3-0.1,0.7-0.1,0.9c0,0.5-0.1,0.9-0.1,1.5c0.1,0,0.3,0,0.4,0c0.3,0,0.7,0,0.9,0.1
				c0.4,0,0.7,0.3,0.9,0.5c0.1,0.3,0.3,0.5,0.1,0.8c-0.1,0.5-0.5,0.9-1.1,1.2l-0.1,0.1c0.1,0,0.1,0.1,0.3,0.1c1.2,0.1,2.3,0,3.5,0
				c0.1,0,0.3,0,0.4,0h0.1l0,0c-0.1,0-0.1,0-0.3-0.1c-0.8-0.3-1.1-1.2-0.4-1.8c0.4-0.4,0.8-0.5,1.4-0.7c0.9-0.1,1.8-0.4,2.7-0.5
				c0.5-0.1,1.1-0.3,1.5-0.5c0,0,0.1-0.1,0.1-0.3c0-0.4,0.1-0.7,0.4-1.1c0.1-0.3,0.4-0.5,0.5-0.8c0-0.1,0.1-0.1,0-0.3
				c-0.1-0.9-0.4-1.9-0.8-2.8v-0.1c0,0,0,0-0.1-0.1c0,0.3-0.1,0.4-0.1,0.5c-0.1,0.8-0.4,1.6-0.5,2.4c0,0.1,0,0.1-0.1,0.3
				c-0.1,0.3-0.3,0.5-0.7,0.5s-0.7,0-0.9-0.3c-0.1-0.1-0.1-0.3-0.3-0.4c-0.1-0.1-0.3-0.4-0.3-0.5c-0.1-0.1-0.1-0.3-0.1-0.4
				s-0.1-0.4-0.1-0.5c-0.1-0.4-0.3-0.8-0.4-1.4c0-0.5-0.1-0.9-0.1-1.5v-0.1h0.1c0,0,0,0,0.1,0.1c0-0.1,0-0.3,0-0.4s0-0.1,0-0.3
				c0.1,0,0.3,0,0.4,0c0,0,0,0,0.1,0.1c0-0.1,0-0.3,0-0.3c0-0.1,0-0.1,0.1-0.3c0.1-0.1,0.1-0.1,0.3,0c0,0.1,0.1,0.1,0.3,0.3
				c0-0.1,0-0.1,0-0.3c0,0,0-0.1,0-0.3c0.1-0.3,0.3-0.7,0.4-0.9c0.3-0.5,0.8-0.8,1.4-1.1c0.1,0,0.3,0,0.4-0.1c0.1,0,0.1,0,0.1-0.1
				c0-0.3,0-0.5,0-0.8c0-0.1,0-0.3,0-0.4s0.1-0.1,0.3,0c0,0,0,0,0,0.1c0,0.3,0.3,0.4,0.4,0.5c0.1,0.1,0.3,0.1,0.3-0.1
				c0-0.4,0-0.7,0-1.1c0,0,0-0.1-0.1-0.1c-0.3-0.1-0.3-0.4-0.3-0.5c0-0.1,0-0.3-0.1-0.4c-0.1-0.3-0.3-0.5-0.1-0.8
				c0.1-0.4,0.1-0.8,0.1-1.4c0-0.1,0-0.1,0.1-0.3c0.3-0.4,0.4-0.9,0.5-1.5c0-0.1,0-0.3,0-0.3c0-0.1,0-0.4-0.1-0.5
				c-0.1-0.3-0.1-0.4,0.1-0.7c0.3-0.3,0.5-0.5,0.8-0.8c0-0.3,0.1-0.7,0.4-0.8h0.1c0.1,0.1,0.3,0.1,0.4,0.3c0.1,0.1,0.1,0.1,0.1,0.3
				c-0.1,0.1,0,0.3,0.1,0.4c0.3,0.1,0.5,0.4,0.7,0.5c0.3,0.1,0.3,0.4,0.1,0.7c-0.1,0.4,0,0.7,0,1.1c0.1,0.3,0.3,0.5,0.4,0.7
				c0.3,0.3,0.5,0.7,0.5,1.1c0,0.3,0,0.5,0,0.8c0,0,0,0,0,0.1c0.3,0.4,0,0.9,0,1.4s-0.1,0.9-0.1,1.4c0,0.3,0.1,0.4,0.3,0.5
				c0.1,0.1,0.1,0,0.1-0.1c0-0.3,0.1-0.4,0.3-0.4c0.1-0.1,0.1-0.3,0.3-0.4c0.1,0.1,0.3,0.1,0.3,0.4v0.1c0.1,0.3,0.1,0.5,0,0.8
				c0.1,0,0.1,0.1,0.3,0.1c0.4,0,0.5,0.3,0.8,0.4c0.3,0.1,0.5,0.5,0.8,0.7c0.1,0.1,0.1,0.1,0.1,0.3c0.4,0.4,0.4,0.8,0.5,1.4
				c0,0.1,0,0.3-0.3,0.3c0,0.3,0.1,0.7,0.1,0.9c0.1,1.1,0.4,2,0.5,3.1c0.1,0.4,0.3,0.7,0.4,1.1c0.1,0.1,0.3,0.4,0.3,0.5
				c0,0.1,0,0.3,0,0.4c-0.4,0-0.4-0.4-0.7-0.5c0,0.4,0,0.9,0,1.4c0,0.3,0,0.5,0,0.8c0,0.1,0,0.1-0.1,0.3c-0.1,0.1-0.3,0-0.3-0.1l0,0
				c0,0.3,0,0.4,0.1,0.7c0.3,0.1,0.5,0.4,0.7,0.7s0.4,0.4,0.4,0.8c0,0.1,0,0.3,0.1,0.3c0,0,0,0.1,0,0.3c0,0.3,0,0.3,0.1,0.3
				c0.1-0.4,0.3-0.7,0.4-1.1c0,0,0,0,0.1,0c0,0.1,0.1,0.1,0.1,0.3c0,0.1,0.1,0.3,0.1,0.4v0.1c0,0.1-0.1,0.4,0.1,0.5
				c0,0.4,0.3,0.3,0.5,0.3c0.3,0,0.5,0,0.8,0.1c0.3,0,0.4,0.3,0.5,0.4v0.1c3.1,0.7,3.5,3,3.5,3s-1.9,0-3.5,0
				C75.7,56.8,60.8,56.8,46,56.8z M56.4,47.2C56.5,47.2,56.5,47.2,56.4,47.2c0-0.1,0-0.1,0-0.3c-0.1-0.5-0.3-0.9-0.4-1.5
				c-0.1-0.3-0.3-0.7-0.4-0.9c0-0.1-0.1-0.1-0.3-0.3c-0.1,0.1-0.1,0.3-0.3,0.4c-0.1,0.1-0.1,0.4-0.3,0.5c-0.1,0.3-0.1,0.7-0.1,0.9
				c0,0.1,0,0.3,0,0.4c0,0.1-0.1,0.3-0.1,0.4c-0.1,0.4-0.4,0.5-0.7,0.5c-0.1,0-0.3,0.1-0.4,0.3c-0.1,0.1-0.3,0.3-0.4,0.4
				s-0.4,0.1-0.5,0.1c-0.3-0.1-0.5-0.4-0.9-0.5l-0.1-0.1c0.1,1.1,0.1,2,0.3,3.1c0.3-0.1,0.4-0.1,0.5-0.3c0.1,0,0.3-0.1,0.3-0.3
				c0.1-0.1,0.3-0.3,0.4-0.3c0.4,0,0.9-0.1,1.4-0.3c0,0,0.1,0,0.1-0.1c0-0.3,0.3-0.3,0.4-0.4l0.1-0.1c-0.1-0.3-0.1-0.3,0-0.4l0,0
				c0.1-0.3,0.3-0.4,0.5-0.7v-0.1c0-0.1-0.1-0.3-0.1-0.5s0.1-0.4,0.3-0.4c0.3,0,0.4,0,0.5,0.3C56.4,47,56.4,47.2,56.4,47.2z
				 M61.9,47.3L61.9,47.3c0.1-0.3,0.3-0.5,0.7-0.5c0.3,0,0.4,0,0.5,0.3c0.1,0.1,0,0.4-0.1,0.5c-0.1,0.1-0.1,0.3,0,0.3
				c0,0.1,0.1,0.3,0.1,0.3c0.1,0.1,0.4,0.3,0.5,0.4c0.3,0.1,0.4,0.1,0.4,0.4c0,0.1,0,0.3,0.3,0.3c0.4,0.1,0.4,0.1,0.4-0.3
				c-0.1-0.5-0.3-1.2-0.4-1.8c-0.3-0.9-0.5-1.9-0.9-2.7c0,0,0-0.1-0.1-0.1s-0.1-0.1-0.3-0.1c-0.1,0.3-0.4,0.5-0.5,0.9
				c-0.1,0.5-0.3,1.1-0.4,1.8C61.8,47,61.8,47.2,61.9,47.3z M83.8,43.5L83.8,43.5c-0.3,0.4-0.3,0.7-0.4,1.1
				c-0.1,0.5-0.1,1.1-0.4,1.6v0.1c0,0.4,0.1,0.7,0.4,0.9c0.3,0.3,0.5,0.5,0.5,0.9c0,0.3,0.3,0.4,0.4,0.5h0.1v-0.1
				c0-0.1,0-0.4-0.1-0.5c0-0.5-0.1-0.9-0.1-1.5c0-0.3,0.1-0.5,0.1-0.7s0-0.1,0-0.3c-0.1-0.5-0.3-1.1-0.5-1.6
				C84,43.9,84,43.6,83.8,43.5z M78.4,38.9c0.3,0,0.5-0.1,0.5-0.3c0-0.3,0-0.5,0-0.8c0-0.1-0.1-0.3-0.3-0.4
				C78.7,38,78.7,38.5,78.4,38.9z"/>
		</g>
		<path class="st2" d="M19.9,24.7c0-0.9,0.7-1.6,1.6-1.6c0.9,0,1.6,0.7,1.6,1.6H19.9z"/>
		<path class="st3" d="M107.7,77.5c0.1,0.1,0.1,0.3,0.3,0.4c-0.1,0-0.1,0-0.3-0.1l0,0c-0.1,0-0.4-0.3-0.4-0.4c0-0.1,0-0.1-0.1-0.1
			c-0.1-0.1-0.3-0.3-0.4-0.4c0-0.1-0.1-0.1-0.1-0.1c-0.1,0-0.4,0-0.4,0s0.1,0,0.1-0.1c0,0,0,0,0-0.1c0,0,0,0,0.1,0
			c0.3,0,0.4-0.1,0.4-0.4c0,0,0,0,0-0.1c0.1-0.1,0.1-0.3,0.3-0.3c0.3-0.4,0.7-0.7,1.2-0.7h0.1c0,0,0,0,0.1,0c0,0,0,0-0.1,0
			c-0.3,0.1-0.4,0.3-0.3,0.5c0,0.1,0.1,0.3,0.1,0.4c0,0.1,0.1,0.1,0.1,0.3s0.1,0.1,0.1,0c0.1-0.1,0.3-0.1,0.4-0.3l0,0
			c0,0.1,0,0.4,0,0.5s0,0.4,0.1,0.5l0,0c0,0-0.1,0-0.1-0.1l-0.1-0.1h-0.1c0,0,0,0,0,0.1c-0.1,0-0.1,0.1-0.1,0.1c0,0.1,0,0.4,0,0.5
			s0,0.1,0.1,0.3c0,0.1,0,0.1-0.1,0.1h-0.1c-0.1-0.1-0.3-0.1-0.4-0.3C107.9,77.5,107.8,77.5,107.7,77.5L107.7,77.5z"/>
		<path class="st3" d="M109.5,74.8c0,0.1,0.1,0.1,0.1,0.3h-0.1l0,0c-0.1,0-0.3-0.1-0.3-0.3c0,0,0,0-0.1-0.1c-0.1,0-0.1-0.1-0.1-0.3
			c0,0,0,0-0.1,0h-0.1l0,0l0,0l0,0c0.1,0,0.1-0.1,0.3-0.3l0,0l0.1-0.1c0.1-0.3,0.4-0.4,0.7-0.4c0,0,0,0,0.1,0l0,0l0,0
			c-0.1,0-0.3,0.1-0.1,0.3c0,0.1,0.1,0.1,0.1,0.3c0,0,0,0.1,0.1,0.1c0,0,0,0,0.1,0c0.1,0,0.1-0.1,0.1-0.1l0,0c0,0.1,0,0.1,0,0.3
			c0,0.1,0,0.1,0,0.3l0,0l0,0c0,0-0.1,0-0.1-0.1l0,0l0,0l0,0c0,0,0,0.1,0,0.3v0.1l0,0h-0.1c-0.1,0-0.1-0.1-0.3-0.1
			C109.7,74.8,109.5,74.8,109.5,74.8L109.5,74.8z"/>
		<path class="st3" d="M110.2,77.7c0,0.1,0.1,0.1,0.1,0.3h-0.1l0,0c-0.1,0-0.3-0.1-0.3-0.3c0,0,0,0-0.1-0.1c0.1,0,0,0,0-0.1
			c0,0,0,0-0.1,0h-0.1l0,0l0,0l0,0c0.1,0,0.1-0.1,0.3-0.3l0,0l0.1-0.1c0.1-0.3,0.4-0.4,0.7-0.4c0,0,0,0,0.1,0l0,0l0,0
			c-0.1,0-0.3,0.1-0.1,0.3c0,0.1,0.1,0.1,0.1,0.3c0,0,0,0.1,0.1,0.1c0,0,0,0,0.1,0s0.1-0.1,0.1-0.1l0,0c0,0.1,0,0.1,0,0.3
			s0,0.1,0,0.3l0,0l0,0c0,0-0.1,0-0.1-0.1l0,0l0,0l0,0c0,0,0,0.1,0,0.3V78l0,0h-0.1c-0.1,0-0.1-0.1-0.3-0.1
			C110.4,77.9,110.4,77.7,110.2,77.7L110.2,77.7z"/>
		<path class="st3" d="M54,66.5c0.1,0.3,0.3,0.4,0.4,0.5c-0.1,0-0.1-0.1-0.3-0.1c0,0,0,0,0.1,0.1c-0.3,0-0.5-0.3-0.7-0.5
			c0-0.1-0.1-0.1-0.1-0.1c-0.3-0.1-0.4-0.3-0.5-0.5c0-0.1-0.1-0.1-0.1-0.1c-0.1,0-0.4,0-0.5,0l0.1-0.1l-0.1-0.1h0.1
			c0.3-0.1,0.4-0.3,0.5-0.5v-0.1c0.1-0.1,0.1-0.3,0.3-0.4c0.4-0.5,0.9-0.9,1.6-0.9h0.1H55c0,0,0,0-0.1,0c-0.4,0.1-0.5,0.4-0.4,0.8
			c0.1,0.1,0.1,0.3,0.3,0.5c0,0.1,0.1,0.3,0.1,0.4s0.1,0.1,0.1,0c0.1-0.1,0.3-0.3,0.5-0.4c0,0,0,0,0.1,0c0,0.3,0,0.5,0,0.7
			c0,0.3,0,0.5,0.1,0.7l0,0L55.7,66c-0.1-0.1-0.1-0.1-0.3-0.3h-0.1c-0.1,0-0.1,0-0.1,0.1C55,65.8,55,66,55,66
			c-0.1,0.1-0.1,0.4,0,0.7c0,0.1,0,0.1,0.1,0.3c0,0.1,0,0.1-0.1,0.1c0,0-0.1,0-0.3,0c-0.1-0.1-0.4-0.1-0.5-0.3
			C54.2,66.6,54.2,66.5,54,66.5L54,66.5z"/>
		<path class="st3" d="M56.4,63c0,0.1,0.1,0.3,0.3,0.3h-0.1l0,0c-0.1,0-0.3-0.1-0.4-0.3c0,0,0-0.1-0.1-0.1c-0.1,0-0.3-0.1-0.3-0.3
			c0,0,0-0.1-0.1-0.1s-0.3,0-0.3,0s0,0,0.1-0.1l0,0l0,0c0.1,0,0.3-0.1,0.3-0.3l0,0c0-0.1,0.1-0.1,0.1-0.3c0.3-0.3,0.5-0.5,0.9-0.5
			c0,0,0,0,0.1,0c0,0,0,0,0.1,0l0,0c-0.1,0.1-0.3,0.3-0.3,0.4s0.1,0.1,0.1,0.3c0,0.1,0.1,0.1,0.1,0.3c0,0,0,0,0.1,0
			c0.1-0.1,0.1-0.1,0.3-0.3l0,0c0,0.1,0,0.3,0,0.4s0,0.3,0,0.4l0,0c0,0,0,0-0.1,0l-0.1-0.1c0,0,0,0-0.1,0c0,0,0,0,0,0.1
			c0-0.1,0,0,0,0c0,0.1,0,0.3,0,0.4v0.1c0,0.1,0,0,0,0h-0.1c-0.1,0-0.1-0.1-0.3-0.1C56.7,63.1,56.5,63,56.4,63L56.4,63z"/>
		<path class="st3" d="M57.5,67c0,0.1,0.1,0.3,0.3,0.3h-0.1l0,0c-0.1,0-0.3-0.1-0.4-0.3c0,0,0-0.1-0.1-0.1s-0.3-0.1-0.3-0.3
			c0,0,0-0.1-0.1-0.1c-0.1,0-0.3,0-0.3,0s0,0,0.1-0.1l0,0l0,0c0.1,0,0.3-0.1,0.3-0.3l0,0c0-0.1,0.1-0.1,0.1-0.3
			c0.3-0.3,0.5-0.5,0.9-0.5c0,0,0,0,0.1,0c0,0,0,0,0.1,0l0,0c-0.1,0.1-0.3,0.3-0.3,0.4S58,65.8,58,66c0,0.1,0.1,0.1,0.1,0.3
			c0,0,0,0,0.1,0c0.1-0.1,0.1-0.1,0.3-0.3l0,0c0,0.1,0,0.3,0,0.4s0,0.3,0,0.4l0,0c0,0,0,0-0.1,0l-0.1-0.1c0,0,0,0-0.1,0
			c0,0,0,0,0,0.1c-0.1,0-0.1,0-0.1,0.1s0,0.3,0,0.4v0.1c0,0.1,0,0,0,0h-0.1c-0.1,0-0.1-0.1-0.3-0.1C57.6,67,57.6,67,57.5,67L57.5,67
			z"/>
		<g class="st4">
			<circle class="st2" cx="53.1" cy="62.4" r="0.3"/>
			<circle class="st2" cx="53.5" cy="61.9" r="0.1"/>
			<circle class="st2" cx="53.3" cy="61.6" r="0.1"/>
			<circle class="st2" cx="53.4" cy="61.2" r="0"/>
		</g>
		<g class="st4">
			<circle class="st2" cx="51" cy="66.6" r="0.3"/>
			<circle class="st2" cx="51.4" cy="66.1" r="0.1"/>
			<circle class="st2" cx="51.1" cy="65.8" r="0.1"/>
			<circle class="st2" cx="51.4" cy="65.4" r="0"/>
		</g>
		<g class="st4">
			<circle class="st2" cx="30" cy="68.3" r="0.3"/>
			<circle class="st2" cx="30.4" cy="67.7" r="0.1"/>
			<circle class="st2" cx="30.1" cy="67.5" r="0.1"/>
			<circle class="st2" cx="30.3" cy="67" r="0"/>
		</g>
		<g class="st4">
			<circle class="st2" cx="27.8" cy="72.5" r="0.3"/>
			<circle class="st2" cx="28.3" cy="71.9" r="0.1"/>
			<circle class="st2" cx="28" cy="71.6" r="0.1"/>
			<circle class="st2" cx="28.3" cy="71.2" r="0"/>
		</g>
		<g class="st4">
			<circle class="st2" cx="106.8" cy="73.5" r="0.1"/>
			<circle class="st2" cx="107.1" cy="73.1" r="0.1"/>
			<circle class="st2" cx="106.8" cy="72.9" r="0"/>
			<circle class="st2" cx="107" cy="72.6" r="0"/>
		</g>
		<g class="st4">
			<circle class="st2" cx="105.2" cy="76.6" r="0.1"/>
			<circle class="st2" cx="105.5" cy="76.2" r="0.1"/>
			<circle class="st2" cx="105.4" cy="76" r="0"/>
			<circle class="st2" cx="105.4" cy="75.8" r="0"/>
		</g>
		<path class="st3" d="M80.6,70.3c0,0-0.8-0.7-0.9-1.4c0-0.5-0.3-1.8,0.9-2.4c0.9-0.5,3-0.5,3.7-0.3l0.1-1.2l0.1-0.3
			c0-0.1,0-0.1,0-0.1l0.1-0.9c0,0,0.4,0,0.4,0.3c0.1,0.3,0.1,0.9,0.1,0.9s1.1,0.5,1.2,0.9c0.1,0.3,0.1,0.8,0.1,0.8l9.9,1.8
			c0,0-0.1-1.6,0-2c0.1-0.4,0.3-0.5,0.7-0.4c0.4,0.1,0.7,0,0.7,0s0.5,0.1,0.5,0.3s0,0.1,0,0.1s-0.1,0,0,0.1s0.3,2.3,0.3,2.3
			s1.9,0.7,2,0.7c0.3,0.1,0.7,0.4,0.7,0.7c0.1,0.3,0,0.9,0,1.1C101.3,71.4,80.6,70.3,80.6,70.3z"/>
		<path class="st3" d="M28.8,72.7c0.1,0.1,0.3,0.1,0.4,0.3c0.3,0.1,0.5,0.1,0.8,0.3l0,0c0.1,0.1,0.1,0.3,0.3,0.4l0,0c0,0,0,0,0-0.1
			s0-0.1,0-0.3c0.1,0,0.1,0,0.3,0c0.3,0,0.4,0,0.7,0c0,0,0.1,0,0.1,0.1c0,0,0,0.1,0.1,0.1c0,0,0,0,0.1,0l0,0
			c0.1,0.1,0.1,0.1,0.3,0.3c0,0,0,0.1,0.1,0v-0.1v-0.1v-0.1l0,0c0.1,0,0.1,0,0.3,0c0.1,0,0.3,0,0.3,0c0.1,0,0.1,0,0.3,0.1
			c0.1,0.1,0.3,0.3,0.5,0.3c0.1,0,0.1,0,0.1-0.1s0.1-0.3,0-0.4v-0.1l0,0h-0.1l0,0h0.1h0.1c0.1,0,0.3,0.1,0.4,0.1
			c0.1,0.1,0.4,0.1,0.5,0.1l0,0c0-0.1,0-0.1,0-0.3c0,0,0-0.1-0.1-0.1v-0.1c0-0.1,0-0.1,0-0.3v-0.1v-0.1v-0.1c0-0.1,0-0.1,0-0.3l0,0
			c-0.1,0-0.3,0.1-0.4,0.1c0,0-0.1,0-0.1,0.1c-0.1,0.1-0.3,0.1-0.5,0.1l0,0l0,0l0,0c0,0,0,0,0.1,0l0,0l0,0h-0.1l0,0
			c-0.1,0.1-0.3,0-0.4,0c-0.3,0-0.5-0.1-0.7-0.1h-0.1c0.1,0,0.1,0,0.3-0.1c0,0,0-0.1-0.1-0.1l-0.1-0.1l0,0l0,0l0,0
			c0-0.1-0.1-0.1-0.1-0.3l0,0l0,0l0,0l0,0c-0.1,0.1-0.1,0.1-0.3,0.3c-0.1,0.1-0.3,0.3-0.3,0.4h-0.1c-0.1,0-0.1,0-0.3,0
			c-0.4,0-0.7,0.1-1.1,0.1c-0.3,0-0.4,0.1-0.7,0.3c-0.1,0-0.1,0.1-0.3,0.1C28.7,72.5,28.8,72.6,28.8,72.7c0.1-0.1,0.1-0.1,0.1,0
			C28.8,72.6,28.8,72.6,28.8,72.7C28.8,72.6,28.8,72.7,28.8,72.7L28.8,72.7z"/>
		<path class="st3" d="M35.8,70.7l0.1,0.1c0.1,0,0.3,0.1,0.4,0.1l0,0l0.1,0.1l0,0l0,0V71h0.1c0.1,0,0.3,0,0.4,0l0,0l0,0l0,0l0,0
			l0.1,0.1l0,0c0,0,0,0,0-0.1c0,0,0,0,0-0.1c0,0,0,0,0-0.1l0,0h0.1h0.1h0.1c0.1,0,0.1,0.1,0.3,0.1c0,0,0,0,0.1,0c0-0.1,0-0.1,0-0.3
			l0,0l0,0l0,0l0,0h0.1c0,0,0,0,0.1,0c0.1,0,0.1,0,0.3,0.1c0.1,0,0.3,0.1,0.3,0.1l0,0v-0.1l0,0l0,0v-0.1c0,0,0,0,0-0.1l0,0l0,0v-0.1
			l0,0c-0.1,0-0.1,0-0.3,0.1c0,0,0,0-0.1,0c-0.1,0.1-0.1,0.1-0.3,0.1l0,0l0,0l0,0l0,0l0,0l0,0c0,0,0,0-0.1,0l0,0c0,0-0.1,0-0.3,0
			c-0.1,0-0.3,0-0.4-0.1c0,0,0,0-0.1,0h0.1l0,0c0,0,0,0,0-0.1l0,0l0,0l0,0c0,0,0-0.1-0.1-0.1l0,0l0,0l0,0l0,0L37,70.3l-0.1,0.1
			c0,0,0,0-0.1,0h-0.1c-0.1,0-0.4,0-0.5,0.1c-0.1,0-0.3,0.1-0.4,0.1c0,0-0.1,0-0.1,0.1C35.8,70.6,35.8,70.6,35.8,70.7
			C35.8,70.6,35.8,70.6,35.8,70.7C35.8,70.6,35.8,70.6,35.8,70.7C35.8,70.6,35.8,70.6,35.8,70.7C35.8,70.6,35.8,70.7,35.8,70.7z"/>
		<path class="st3" d="M35.8,73.1l0.1,0.1c0.1,0,0.3,0.1,0.4,0.1l0,0l0.1,0.1l0,0l0,0v-0.1h0.1c0.1,0,0.3,0,0.4,0l0,0l0,0l0,0l0,0
			l0.1,0.1l0,0c0,0,0,0,0-0.1c0,0,0,0,0-0.1c0,0,0,0,0-0.1l0,0h0.1h0.1h0.1c0.1,0,0.1,0.1,0.3,0.1c0,0,0,0,0.1,0c0-0.1,0-0.1,0-0.3
			l0,0l0,0l0,0l0,0h0.1c0,0,0,0,0.1,0c0.1,0,0.1,0,0.3,0.1c0.1,0,0.3,0.1,0.3,0.1l0,0v-0.1l0,0l0,0V73c0,0,0,0,0-0.1l0,0l0,0v-0.1
			l0,0c-0.1,0-0.1,0-0.3,0.1c0,0,0,0-0.1,0C38.3,73,38.3,73,38.1,73l0,0l0,0l0,0l0,0l0,0l0,0c0,0,0,0-0.1,0l0,0c0,0-0.1,0-0.3,0
			c-0.1,0-0.3,0-0.4-0.1c0,0,0,0-0.1,0h0.1l0,0c0,0,0,0,0-0.1l0,0l0,0l0,0c0,0,0-0.1-0.1-0.1l0,0l0,0l0,0l0,0L37,72.7l-0.1,0.1
			c0,0,0,0-0.1,0h-0.1c-0.1,0-0.4,0-0.5,0.1c-0.1,0-0.3,0.1-0.4,0.1c0,0-0.1,0-0.1,0.1C35.8,73,35.8,73,35.8,73.1L35.8,73.1
			L35.8,73.1L35.8,73.1L35.8,73.1z"/>
		<g class="st4">
			<circle class="st2" cx="115.9" cy="61.6" r="0.1"/>
			<circle class="st2" cx="116.2" cy="61.2" r="0.1"/>
			<circle class="st2" cx="115.9" cy="61" r="0.1"/>
			<circle class="st2" cx="116" cy="60.7" r="0"/>
		</g>
		<g class="st4">
			<circle class="st2" cx="114.1" cy="65" r="0.1"/>
			<circle class="st2" cx="114.4" cy="64.6" r="0.1"/>
			<circle class="st2" cx="114.3" cy="64.3" r="0.1"/>
			<circle class="st2" cx="114.4" cy="64.1" r="0"/>
		</g>
		<path class="st3" d="M114.8,65.2c0.1,0.1,0.1,0.1,0.3,0.1c0.3,0,0.4,0.1,0.7,0.1l0,0c0,0.1,0.1,0.1,0.1,0.3l0,0l0,0v-0.1h0.1
			c0.1,0,0.4,0,0.5,0h0.1c0,0,0,0,0,0.1l0,0l0,0c0,0.1,0.1,0.1,0.1,0.3c0,0,0,0,0.1,0v-0.1v-0.1v-0.1l0,0c0.1,0,0.1,0,0.3,0
			s0.1,0,0.3,0s0.1,0,0.3,0.1c0.1,0.1,0.3,0.1,0.4,0.3h0.1c0-0.1,0-0.3,0-0.3s0,0,0-0.1l0,0c0,0,0,0-0.1,0l0,0h0.1h0.1
			c0.1,0,0.3,0,0.4,0.1c0.1,0,0.3,0.1,0.5,0.1l0,0v-0.1c0,0,0-0.1-0.1-0.1c0,0,0,0,0-0.1v-0.1v-0.1c0,0,0,0,0-0.1c0,0,0,0,0-0.1
			v-0.1l0,0c-0.1,0-0.3,0.1-0.4,0.1c0,0-0.1,0-0.1,0.1c-0.1,0.1-0.3,0.1-0.4,0.1l0,0l0,0l0,0c0,0,0,0,0.1,0l0,0l0,0h-0.1l0,0
			c-0.1,0-0.3,0-0.3,0c-0.1,0-0.4-0.1-0.5-0.1h-0.1h0.1v-0.1c0,0,0-0.1-0.1-0.1l0,0l0,0l0,0c0-0.1-0.1-0.1-0.1-0.3l0,0l0,0l0,0l0,0
			c-0.1,0-0.1,0.1-0.1,0.1c-0.1,0.1-0.1,0.1-0.3,0.3h-0.1h-0.1c-0.3,0-0.5,0-0.8,0.1c-0.1,0-0.4,0.1-0.5,0.1l-0.1,0.1
			C114.8,65,114.8,65,114.8,65.2C114.8,65.2,115,65.2,114.8,65.2C115,65.2,114.8,65.2,114.8,65.2L114.8,65.2L114.8,65.2z"/>
		<path class="st3" d="M120.5,63.5l0.1,0.1c0.1,0,0.3,0,0.4,0.1l0,0c0,0,0,0.1,0.1,0.1l0,0l0,0c0,0,0,0,0-0.1c0,0,0,0,0.1,0
			s0.1,0,0.3,0l0,0l0,0l0,0l0,0c0,0,0,0.1,0.1,0.1l0,0l0,0c0,0,0,0,0-0.1l0,0l0,0h0.1h0.1h0.1c0.1,0,0.1,0.1,0.3,0.1l0,0v-0.1l0,0
			l0,0l0,0l0,0c0,0,0,0,0.1,0c0,0,0,0,0.1,0s0.1,0,0.1,0c0.1,0,0.1,0,0.3,0l0,0v-0.1l0,0l0,0c0,0,0,0,0-0.1l0,0l0,0l0,0
			c0,0,0,0,0-0.1l0,0c0,0-0.1,0-0.1,0.1l0,0c0,0-0.1,0.1-0.3,0l0,0l0,0l0,0l0,0l0,0l0,0l0,0l0,0h-0.1c-0.1,0-0.1,0-0.3,0
			c0,0,0,0-0.1,0c0,0,0,0,0.1,0l0,0l0,0l0,0l0,0l0,0c0,0,0-0.1-0.1-0.1l0,0l0,0l0,0l0,0c0,0-0.1,0-0.1,0.1l-0.1,0.1l0,0
			c0,0,0,0-0.1,0s-0.3,0-0.4,0.1c-0.1,0-0.1,0-0.3,0.1C120.6,63.4,120.5,63.4,120.5,63.5C120.5,63.4,120.5,63.4,120.5,63.5
			L120.5,63.5L120.5,63.5L120.5,63.5L120.5,63.5z"/>
		<path class="st3" d="M120.5,65.6l0.1,0.1c0.1,0,0.3,0,0.4,0.1l0,0c0,0,0,0.1,0.1,0.1l0,0l0,0c0,0,0,0,0-0.1c0,0,0,0,0.1,0
			s0.1,0,0.3,0l0,0l0,0l0,0l0,0c0,0,0,0.1,0.1,0.1l0,0l0,0c0,0,0,0,0-0.1l0,0l0,0h0.1h0.1h0.1c0.1,0,0.1,0.1,0.3,0.1l0,0v-0.1l0,0
			l0,0l0,0l0,0c0,0,0,0,0.1,0c0,0,0,0,0.1,0s0.1,0,0.1,0c0.1,0,0.1,0,0.3,0l0,0v-0.1l0,0l0,0c0,0,0,0,0-0.1l0,0l0,0l0,0
			c0,0,0,0,0-0.1l0,0c0,0-0.1,0-0.1,0.1l0,0c0,0-0.1,0.1-0.3,0l0,0l0,0l0,0l0,0l0,0l0,0l0,0l0,0h-0.1c-0.1,0-0.1,0-0.3,0
			c0,0,0,0-0.1,0c0,0,0,0,0.1,0l0,0l0,0l0,0l0,0l0,0c0,0,0-0.1-0.1-0.1l0,0l0,0l0,0l0,0c0,0-0.1,0-0.1,0.1l-0.1,0.1l0,0
			c0,0,0,0-0.1,0s-0.3,0-0.4,0.1c-0.1,0-0.1,0-0.3,0.1C120.6,65.4,120.5,65.4,120.5,65.6C120.5,65.4,120.5,65.4,120.5,65.6
			L120.5,65.6L120.5,65.6L120.5,65.6L120.5,65.6z"/>
		<g>
			<path class="st2" d="M44.2,71.1c0.8-0.7,1.6,0.3,2.4,0.3c0.5,0,0.9-0.7,1.5-0.9c0.8-0.4,1.5,0,1.9,0.4c-0.3-0.8-1.2-1.2-2-0.8
				c-0.5,0.3-0.9,0.8-1.5,0.8C45.8,71,45,70,44.2,71.1z"/>
			<path class="st2" d="M47.6,71.2c1.8-1.6,2.2,0.7,3.4-0.5C49.8,72.3,49.2,70.2,47.6,71.2z"/>
			<path class="st2" d="M44.3,70.4c1.4-1.8,1.9,0.7,3.1-0.5C46.4,71.5,45.7,69.3,44.3,70.4z"/>
		</g>
		<g>
			<path class="st2" d="M18.5,62.7c0.8-0.7,1.6,0.3,2.4,0.3c0.5,0,0.9-0.7,1.5-0.9c0.8-0.4,1.5,0,1.9,0.4c-0.3-0.8-1.2-1.2-2-0.8
				c-0.5,0.3-0.9,0.8-1.5,0.8C20.1,62.6,19.3,61.6,18.5,62.7z"/>
			<path class="st2" d="M21.9,63c1.8-1.6,2.2,0.7,3.4-0.5C24.1,64.1,23.5,61.9,21.9,63z"/>
			<path class="st2" d="M18.6,62c1.4-1.8,1.9,0.7,3.1-0.5C20.7,63.1,20,61,18.6,62z"/>
		</g>
		<g>
			<path class="st2" d="M35.6,77.1c0.8-0.7,1.6,0.3,2.4,0.3c0.5,0,0.9-0.7,1.5-0.9c0.8-0.4,1.5,0,1.9,0.4c-0.3-0.8-1.2-1.2-2-0.8
				c-0.5,0.3-0.9,0.8-1.5,0.8C37,76.9,36.4,76,35.6,77.1z"/>
			<path class="st2" d="M38.8,77.2c1.8-1.6,2.2,0.7,3.4-0.5C41.1,78.3,40.4,76.2,38.8,77.2z"/>
			<path class="st2" d="M35.7,76.4c1.4-1.8,1.9,0.7,3.1-0.5C37.6,77.5,37,75.3,35.7,76.4z"/>
		</g>
		<g>
			<path class="st2" d="M58,60c0.8-0.7,1.6,0.3,2.4,0.3c0.5,0,0.9-0.7,1.5-0.9c0.8-0.4,1.5,0,1.9,0.4c-0.3-0.8-1.2-1.2-2-0.8
				c-0.5,0.3-0.9,0.8-1.5,0.8C59.6,59.7,58.8,58.9,58,60z"/>
			<path class="st2" d="M61.4,60.1c1.8-1.6,2.2,0.7,3.4-0.5C63.6,61.2,63,59.1,61.4,60.1z"/>
			<path class="st2" d="M58.1,59.2c1.4-1.8,1.9,0.7,3.1-0.5C60.2,60.3,59.5,58.1,58.1,59.2z"/>
		</g>
		<g>
			<path class="st2" d="M33.9,66.9c0.8-0.7,1.6,0.3,2.4,0.3c0.5,0,0.9-0.7,1.5-0.9c0.8-0.4,1.5,0,1.9,0.4c-0.3-0.8-1.2-1.2-2-0.8
				c-0.5,0.3-0.9,0.9-1.5,0.9C35.6,66.8,34.7,65.8,33.9,66.9z"/>
			<path class="st2" d="M37.3,67c1.8-1.6,2.2,0.7,3.4-0.5C39.5,68.3,38.9,66.1,37.3,67z"/>
			<path class="st2" d="M34.1,66.2c1.4-1.8,1.9,0.7,3.1-0.5C36.1,67.3,35.4,65.2,34.1,66.2z"/>
		</g>
		<g>
			<path class="st2" d="M110.4,71.1c0.8-0.7,1.6,0.3,2.4,0.3c0.5,0,0.9-0.7,1.5-0.9c0.8-0.4,1.5,0,1.9,0.4c-0.3-0.8-1.2-1.2-2-0.8
				c-0.5,0.3-0.9,0.8-1.5,0.8C111.8,71,111,70,110.4,71.1z"/>
			<path class="st2" d="M113.6,71.2c1.8-1.6,2.2,0.7,3.4-0.5C115.9,72.5,115.2,70.3,113.6,71.2z"/>
			<path class="st2" d="M110.5,70.4c1.4-1.8,1.9,0.7,3.1-0.5C112.4,71.5,111.8,69.3,110.5,70.4z"/>
		</g>
		<g>
			<path class="st2" d="M80.2,61.2c0.8-0.7,1.6,0.3,2.4,0.3c0.5,0,0.9-0.7,1.5-0.9c0.8-0.4,1.5,0,1.9,0.4c-0.3-0.8-1.2-1.2-2-0.8
				C83.4,60.4,83,61,82.5,61C81.8,61.1,81,60.1,80.2,61.2z"/>
			<path class="st2" d="M83.6,61.4c1.8-1.6,2.2,0.7,3.4-0.5C85.7,62.4,85.2,60.4,83.6,61.4z"/>
			<path class="st2" d="M80.3,60.6c1.4-1.8,1.9,0.7,3.1-0.5C82.4,61.6,81.7,59.5,80.3,60.6z"/>
		</g>
		<g>
			<path class="st2" d="M88.2,77.2c0.8-0.7,1.6,0.3,2.4,0.3c0.5,0,0.9-0.7,1.5-0.9c0.8-0.4,1.5,0,1.9,0.4c-0.3-0.8-1.2-1.2-2-0.8
				c-0.5,0.3-0.9,0.8-1.5,0.8C89.7,77.1,89,76.1,88.2,77.2z"/>
			<path class="st2" d="M91.4,77.3c1.8-1.6,2.2,0.7,3.4-0.5C93.7,78.4,93,76.4,91.4,77.3z"/>
			<path class="st2" d="M88.3,76.5c1.4-1.8,1.9,0.7,3.1-0.5C90.2,77.6,89.7,75.4,88.3,76.5z"/>
		</g>
		<g>
			<path class="st2" d="M116.3,60.4c0.8-0.7,1.6,0.3,2.4,0.3c0.5,0,0.9-0.7,1.5-0.9c0.8-0.4,1.5,0,1.9,0.4c-0.3-0.8-1.2-1.2-2-0.8
				c-0.5,0.3-0.9,0.8-1.5,0.8C117.8,60.3,117.1,59.3,116.3,60.4z"/>
			<path class="st2" d="M119.6,60.6c1.8-1.6,2.2,0.7,3.4-0.5C121.9,61.6,121.2,59.6,119.6,60.6z"/>
			<path class="st2" d="M116.4,59.7c1.4-1.8,1.9,0.7,3.1-0.5C118.3,60.8,117.8,58.7,116.4,59.7z"/>
		</g>
		<g>
			<path class="st2" d="M102.2,67.9c0.8-0.7,1.6,0.3,2.4,0.3c0.5,0,0.9-0.7,1.5-0.9c0.8-0.4,1.5,0,1.9,0.4c-0.3-0.8-1.2-1.2-2-0.8
				c-0.5,0.3-0.9,0.8-1.5,0.8C103.7,67.7,103.1,66.8,102.2,67.9z"/>
			<path class="st2" d="M105.5,68c1.8-1.6,2.2,0.7,3.4-0.5C107.8,69.2,107.1,67,105.5,68z"/>
			<path class="st2" d="M102.4,67.2c1.4-1.8,1.9,0.7,3.1-0.5C104.3,68.3,103.7,66.1,102.4,67.2z"/>
		</g>
		<g>
			<polygon class="st2" points="17.8,45.7 25.5,50.1 25.3,46.4 18,42.2 			"/>
			<path class="st2" d="M18.4,26.9l-7.4-1.4v4.1l7.3-1.2l-0.1,1.1h-0.3v1.1h0.9v0.5l5.7,3.4l-0.3-3.8h0.9v-1.1h-0.4l-0.3-3.8h0.4
				v-1.1h-6.6v1.1h0.4L18.4,26.9z M21.8,26.1h2l0.3,3.1h-2.3V26.1z M19.2,26.1h2v3.1h-2.3L19.2,26.1z"/>
			<polygon class="st2" points="18.5,34.9 18.2,38.4 25,42.3 24.7,38.4 			"/>
			<polygon class="st2" points="26.6,54.9 25.8,54.9 25.7,54.2 17.6,49.5 17.2,54.9 16.3,54.9 16.2,56.8 26.8,56.8 			"/>
		</g>
	</g>
	<path class="st2" d="M128.5,51.6c-1.9-1.9-4.1-4.2-4.6-5.4h-4.6v-1.5h3.4l-0.9-1.9h-2.4v-1.4h1.6l-0.3-1.5h-1.4v-1.5h0.9v-3.9
		l0.3-0.7l-2.2-0.3l-0.3-8.4l0.5-1.5h-0.1l-0.4,1.4v-1.6h-0.3v1.6l-0.4-1.5l-0.1,0.3l0.3,1.4l-0.3,8.5l-1.8,0.3l0.3,0.9l0.1,3.7h1.5
		v1.5h-1.5l-0.7,1.4h1.9v1.4H115l-0.5,1.9h2.7v1.5h-3.5c0,0-1.6,4.9-5.3,8.7l-0.1,1.8h0.5h5.7c0,0,1.4-1.6,1.8-2.4s1.2-0.8,1.1,0.4
		l-0.3,2.2h1.5c0,0-0.3-3.4,0.5-3.2s3.8,3.2,3.8,3.2h5.5v-5.1H128.5z"/>
	<g>
		<path class="st5" d="M144.6,50.9l-6.5-37.5h6l4.7,29.2l4.5-29.2h6l-6.9,37.5C152.4,50.9,144.6,50.9,144.6,50.9z"/>
		<path class="st5" d="M169.6,50.9H164V13.4h5.6V50.9z"/>
		<path class="st5" d="M190.8,13.4v5.6l-10.3,26.3h10.3v5.6h-16.5v-5.6l10.5-26.1h-10.5v-5.6h16.5V13.4z"/>
		<path class="st5" d="M201.9,42.2l-1.4,8.5h-5.8l6.3-37.5h7.8l6.3,37.5h-6l-1.3-8.5H201.9z M204.9,21.9l-2.2,14.8h4.2L204.9,21.9z"
			/>
		<path class="st5" d="M227.9,51.3c-2.5,0-4.5-0.9-6.3-2.7c-1.8-1.8-2.5-3.8-2.5-6.3V21.9c0-2.5,0.9-4.5,2.7-6.3
			c1.8-1.8,3.8-2.5,6.3-2.5c2.5,0,4.5,0.9,6.3,2.7c1.8,1.8,2.5,3.8,2.5,6.3v4.3h-5.8v-4.3c0-0.9-0.4-1.6-0.9-2.4
			c-0.9-0.9-1.6-1.1-2.5-1.1c-0.9,0-1.6,0.4-2.4,0.9c-0.5,0.7-0.9,1.4-0.9,2.4v20.5c0,0.9,0.4,1.6,0.9,2.4c0.5,0.5,1.4,0.9,2.4,0.9
			c0.9,0,1.6-0.4,2.4-0.9c0.7-0.5,0.9-1.4,0.9-2.4V35h-3.1v-5.6h9.1v13c0,2.5-0.9,4.5-2.7,6.3C232.5,50.6,230.3,51.3,227.9,51.3z"/>
		<g>
			<path class="st6" d="M147.4,79.9c-1.5,0-2.7-0.5-3.8-1.5c-1.1-1.1-1.5-2.3-1.5-3.8V57.2h3.3v17.3c0,0.5,0.2,1,0.5,1.4
				c0.4,0.3,0.9,0.5,1.4,0.5s1-0.2,1.4-0.5c0.3-0.3,0.5-0.9,0.5-1.4V57.2h3.5v17.4c0,1.5-0.5,2.7-1.6,3.8
				C150.2,79.4,148.9,79.9,147.4,79.9z"/>
			<path class="st6" d="M161.2,57.2c1.6,0,2.9,0.5,3.9,1.5c0.9,1,1.4,2.3,1.4,3.8v3.3c0,1.5-0.5,2.7-1.5,3.8
				c-1.1,1.1-2.3,1.6-3.8,1.6h-2v8.5h-3.5V57.2H161.2z M163.1,62.6c0-0.5-0.2-1.1-0.5-1.4c-0.3-0.3-0.9-0.5-1.4-0.5h-2.1v7.2h2.1
				c0.5,0,1-0.2,1.4-0.5c0.3-0.4,0.5-0.9,0.5-1.4V62.6z"/>
			<path class="st6" d="M179.8,74.3c0,1.5-0.5,2.7-1.5,3.8c-1.1,1.1-2.3,1.6-3.8,1.6h-5.3V57.2h5.3c1.5,0,2.7,0.5,3.8,1.6
				c1.1,1.1,1.5,2.3,1.5,3.8V74.3z M172.5,76.3h2.1c0.5,0,1-0.2,1.4-0.5c0.3-0.4,0.5-0.9,0.5-1.4V62.6c0-0.5-0.2-1-0.5-1.4
				c-0.3-0.4-0.9-0.5-1.3-0.5h-2.1v15.6H172.5z"/>
			<path class="st6" d="M186.5,74.5l-0.9,5.1h-3.5l3.8-22.5h4.7l3.8,22.5h-3.6l-0.8-5.1H186.5z M188.2,62.3l-1.3,8.8h2.5L188.2,62.3
				z"/>
			<path class="st6" d="M197.6,60.6H194v-3.4h10.5v3.4H201v19h-3.4C197.6,79.6,197.6,60.6,197.6,60.6z"/>
			<path class="st6" d="M207.3,79.7V57.2h9.7v3.4h-6.3v6.1h4.6v3.5h-4.6v6.1h6.3v3.4h-9.7V79.7z"/>
			<path class="st6" d="M230.5,74.1c0,1.5-0.4,2.9-1.2,4c-0.5,0.8-1.3,1.3-2.3,1.6c-0.5,0.2-1.2,0.2-1.8,0.2c-1.3,0-2.4-0.3-3.3-1
				c-0.8-0.5-1.3-1.3-1.7-2.2c-0.4-1-0.7-2-0.8-3.2l3.3-0.2c0.1,1.3,0.5,2.3,1.1,2.8c0.4,0.4,0.9,0.7,1.4,0.7c0.8,0,1.3-0.4,1.7-1.1
				c0.2-0.3,0.3-0.9,0.3-1.5c0-1-0.4-1.8-1.3-2.8c-0.7-0.7-1.6-1.6-3-2.8c-1.1-1.1-2-2.1-2.4-2.9c-0.5-1-0.8-2.1-0.8-3.2
				c0-2.1,0.7-3.6,2.1-4.7c0.9-0.7,1.8-1,3.2-1c1.2,0,2.3,0.2,3.2,0.8c0.7,0.4,1.2,1,1.6,1.7c0.4,0.8,0.7,1.6,0.8,2.6l-3.3,0.5
				c-0.1-0.9-0.3-1.6-0.8-2.2c-0.3-0.3-0.8-0.5-1.3-0.5c-0.7,0-1.1,0.3-1.4,0.9c-0.2,0.4-0.4,1-0.4,1.6c0,1,0.4,2.1,1.3,3.2
				c0.3,0.4,0.9,0.9,1.5,1.4c0.8,0.7,1.3,1.1,1.5,1.4c0.9,0.9,1.5,1.6,2,2.5c0.2,0.4,0.4,0.8,0.5,1.1
				C230.3,72.8,230.4,73.4,230.5,74.1z"/>
		</g>
	</g>
	<g>
		<path d="M233.8,59.8V59l3.7-1.4v1l-2.7,0.9l2.7,0.8v0.9L233.8,59.8z"/>
		<path d="M236.8,64.3H236v1.3h-0.7v-1.3h-1.6v-0.9h3.7v2.3h-0.7V64.3z"/>
		<path d="M233.6,68.2c0-1.4,0.8-1.8,2-1.8c1.1,0,2,0.5,2,1.8c0,1.3-0.8,1.8-2,1.8C234.5,70,233.6,69.6,233.6,68.2z M236.9,68.2
			c0-0.6-0.3-0.9-1.3-0.9c-1,0-1.3,0.3-1.3,0.9c0,0.6,0.4,0.9,1.3,0.9C236.6,69.1,236.9,68.8,236.9,68.2z"/>
		<path d="M233.8,72.9l1.5-1.1v-0.1h-1.5v-0.9h3.7v1.5c0,0.6-0.2,1.3-1.1,1.3c-0.5,0-0.9-0.2-1.1-0.9l-1.5,1.1V72.9z M236.8,72.4
			v-0.7h-0.9v0.7c0,0.2,0.2,0.4,0.4,0.4C236.6,72.8,236.8,72.7,236.8,72.4z"/>
		<path d="M233.6,78c0-1.1,0.5-1.7,1.5-1.7h2.4v0.9h-2.3c-0.8,0-0.9,0.4-0.9,0.8c0,0.4,0.2,0.7,0.9,0.7h2.3v0.9h-2.4
			C234.1,79.6,233.6,79,233.6,78z"/>
	</g>
</g>
</svg>
